<?xml version="1.0" encoding="UTF-8"?>
<svg width="24px" height="25px" viewBox="0 0 24 25" version="1.1" xmlns="http://www.w3.org/2000/svg" xmlns:xlink="http://www.w3.org/1999/xlink">
    <title>Path 7</title>
    <g id="Page-1" stroke="none" stroke-width="1" fill="none" fill-rule="evenodd">
        <g id="iPhone-11-Copy-16" transform="translate(-69.000000, -711.000000)" fill="#00F3FF" stroke="#00F3FF" stroke-width="1.04500001">
            <g id="Group-8" transform="translate(49.000000, 691.000000)">
                <polygon id="Path-7" points="20.9000002 20.9000002 20.9000002 43.405735 42.6028677 32.1528676"></polygon>
            </g>
        </g>
    </g>
</svg>